\relax 
\providecommand\hyper@newdestlabel[2]{}
\providecommand\HyperFirstAtBeginDocument{\AtBeginDocument}
\HyperFirstAtBeginDocument{\ifx\hyper@anchor\@undefined
\global\let\oldcontentsline\contentsline
\gdef\contentsline#1#2#3#4{\oldcontentsline{#1}{#2}{#3}}
\global\let\oldnewlabel\newlabel
\gdef\newlabel#1#2{\newlabelxx{#1}#2}
\gdef\newlabelxx#1#2#3#4#5#6{\oldnewlabel{#1}{{#2}{#3}}}
\AtEndDocument{\ifx\hyper@anchor\@undefined
\let\contentsline\oldcontentsline
\let\newlabel\oldnewlabel
\fi}
\fi}
\global\let\hyper@last\relax 
\gdef\HyperFirstAtBeginDocument#1{#1}
\providecommand\HyField@AuxAddToFields[1]{}
\providecommand\HyField@AuxAddToCoFields[2]{}
\@writefile{toc}{\beamer@endinputifotherversion {3.33pt}}
\@writefile{nav}{\beamer@endinputifotherversion {3.33pt}}
\@writefile{nav}{\headcommand {\slideentry {0}{0}{1}{1/1}{}{0}}}
\@writefile{nav}{\headcommand {\beamer@framepages {1}{1}}}
\@writefile{nav}{\headcommand {\slideentry {0}{0}{2}{2/2}{}{0}}}
\@writefile{nav}{\headcommand {\beamer@framepages {2}{2}}}
\@writefile{toc}{\beamer@sectionintoc {1}{Introduction}{3}{0}{1}}
\@writefile{nav}{\headcommand {\sectionentry {1}{Introduction}{3}{Introduction}{0}}}
\@writefile{nav}{\headcommand {\beamer@sectionpages {1}{2}}}
\@writefile{nav}{\headcommand {\beamer@subsectionpages {1}{2}}}
\@writefile{nav}{\headcommand {\slideentry {1}{0}{3}{3/3}{}{0}}}
\@writefile{nav}{\headcommand {\beamer@framepages {3}{3}}}
\@writefile{nav}{\headcommand {\slideentry {1}{0}{4}{4/4}{}{0}}}
\@writefile{nav}{\headcommand {\beamer@framepages {4}{4}}}
\@writefile{toc}{\beamer@sectionintoc {2}{Literature Review Of Geometric Modeling}{5}{0}{2}}
\@writefile{nav}{\headcommand {\sectionentry {2}{Literature Review Of Geometric Modeling}{5}{Literature Review Of Geometric Modeling}{0}}}
\@writefile{nav}{\headcommand {\beamer@sectionpages {3}{4}}}
\@writefile{nav}{\headcommand {\beamer@subsectionpages {3}{4}}}
\@writefile{toc}{\beamer@subsectionintoc {2}{1}{Overview}{5}{0}{2}}
\@writefile{nav}{\headcommand {\beamer@subsectionentry {0}{2}{1}{5}{Overview}}\headcommand {\beamer@subsectionpages {5}{4}}}
\@writefile{toc}{\beamer@subsectionintoc {2}{2}{Wireframe Modeling}{5}{0}{2}}
\@writefile{nav}{\headcommand {\beamer@subsectionentry {0}{2}{2}{5}{Wireframe Modeling}}\headcommand {\beamer@subsectionpages {5}{4}}}
\@writefile{nav}{\headcommand {\slideentry {2}{2}{1}{5/5}{Wireframe Modeling}{0}}}
\@writefile{nav}{\headcommand {\beamer@framepages {5}{5}}}
\@writefile{toc}{\beamer@subsectionintoc {2}{3}{Surface Modeling}{6}{0}{2}}
\@writefile{nav}{\headcommand {\beamer@subsectionentry {0}{2}{3}{6}{Surface Modeling}}\headcommand {\beamer@subsectionpages {5}{5}}}
\@writefile{nav}{\headcommand {\slideentry {2}{3}{1}{6/6}{Surface Modeling}{0}}}
\@writefile{nav}{\headcommand {\beamer@framepages {6}{6}}}
\@writefile{nav}{\headcommand {\slideentry {2}{3}{2}{7/7}{Surface Modeling}{0}}}
\@writefile{nav}{\headcommand {\beamer@framepages {7}{7}}}
\@writefile{nav}{\headcommand {\slideentry {2}{3}{3}{8/8}{Surface Modeling}{0}}}
\@writefile{nav}{\headcommand {\beamer@framepages {8}{8}}}
\@writefile{toc}{\beamer@subsectionintoc {2}{4}{Solid Modeling}{9}{0}{2}}
\@writefile{nav}{\headcommand {\beamer@subsectionentry {0}{2}{4}{9}{Solid Modeling}}\headcommand {\beamer@subsectionpages {6}{8}}}
\@writefile{nav}{\headcommand {\slideentry {2}{4}{1}{9/9}{Solid Modeling}{0}}}
\@writefile{nav}{\headcommand {\beamer@framepages {9}{9}}}
\@writefile{nav}{\headcommand {\slideentry {2}{4}{2}{10/10}{Solid Modeling}{0}}}
\@writefile{nav}{\headcommand {\beamer@framepages {10}{10}}}
\@writefile{nav}{\headcommand {\slideentry {2}{4}{3}{11/11}{Solid Modeling}{0}}}
\@writefile{nav}{\headcommand {\beamer@framepages {11}{11}}}
\@writefile{toc}{\beamer@subsectionintoc {2}{5}{Non-manifold Modeling }{12}{0}{2}}
\@writefile{nav}{\headcommand {\beamer@subsectionentry {0}{2}{5}{12}{Non-manifold Modeling }}\headcommand {\beamer@subsectionpages {9}{11}}}
\@writefile{nav}{\headcommand {\slideentry {2}{5}{1}{12/12}{Non-manifold Modeling }{0}}}
\@writefile{nav}{\headcommand {\beamer@framepages {12}{12}}}
\@writefile{toc}{\beamer@sectionintoc {3}{Analysis \& Design}{13}{0}{3}}
\@writefile{nav}{\headcommand {\sectionentry {3}{Analysis \& Design}{13}{Analysis \& Design}{0}}}
\@writefile{nav}{\headcommand {\beamer@sectionpages {5}{12}}}
\@writefile{nav}{\headcommand {\beamer@subsectionpages {12}{12}}}
\@writefile{nav}{\headcommand {\slideentry {3}{0}{2}{13/13}{}{0}}}
\@writefile{nav}{\headcommand {\beamer@framepages {13}{13}}}
\@writefile{nav}{\headcommand {\slideentry {3}{0}{3}{14/14}{}{0}}}
\@writefile{nav}{\headcommand {\beamer@framepages {14}{14}}}
\@writefile{nav}{\headcommand {\slideentry {3}{0}{4}{15/15}{}{0}}}
\@writefile{nav}{\headcommand {\beamer@framepages {15}{15}}}
\newlabel{Heart}{{1}{16}{Analysis \& Design}{Doc-Start}{}}
\@writefile{snm}{\beamer@slide {Heart}{16}}
\@writefile{nav}{\headcommand {\slideentry {3}{0}{5}{16/16}{}{0}}}
\@writefile{nav}{\headcommand {\beamer@framepages {16}{16}}}
\@writefile{nav}{\headcommand {\slideentry {3}{0}{6}{17/17}{}{0}}}
\@writefile{nav}{\headcommand {\beamer@framepages {17}{17}}}
\@writefile{nav}{\headcommand {\slideentry {3}{0}{7}{18/18}{}{0}}}
\@writefile{nav}{\headcommand {\beamer@framepages {18}{18}}}
\@writefile{nav}{\headcommand {\slideentry {3}{0}{8}{19/19}{}{0}}}
\@writefile{nav}{\headcommand {\beamer@framepages {19}{19}}}
\@writefile{nav}{\headcommand {\slideentry {3}{0}{9}{20/20}{}{0}}}
\@writefile{nav}{\headcommand {\beamer@framepages {20}{20}}}
\@writefile{nav}{\headcommand {\slideentry {3}{0}{10}{21/21}{}{0}}}
\@writefile{nav}{\headcommand {\beamer@framepages {21}{21}}}
\@writefile{nav}{\headcommand {\slideentry {3}{0}{11}{22/22}{}{0}}}
\@writefile{nav}{\headcommand {\beamer@framepages {22}{22}}}
\@writefile{snm}{\beamer@slide {eq}{23}}
\newlabel{eq}{{{1}}{23}{Analysis \& Design}{Doc-Start}{}}
\@writefile{nav}{\headcommand {\slideentry {3}{0}{12}{23/23}{}{0}}}
\@writefile{nav}{\headcommand {\beamer@framepages {23}{23}}}
\@writefile{nav}{\headcommand {\slideentry {3}{0}{13}{24/24}{}{0}}}
\@writefile{nav}{\headcommand {\beamer@framepages {24}{24}}}
\@writefile{nav}{\headcommand {\slideentry {3}{0}{14}{25/25}{}{0}}}
\@writefile{nav}{\headcommand {\beamer@framepages {25}{25}}}
\@writefile{toc}{\beamer@sectionintoc {4}{Results \& Discussion}{26}{0}{4}}
\@writefile{nav}{\headcommand {\sectionentry {4}{Results \& Discussion}{26}{Results \& Discussion}{0}}}
\@writefile{nav}{\headcommand {\beamer@sectionpages {13}{25}}}
\@writefile{nav}{\headcommand {\beamer@subsectionpages {13}{25}}}
\@writefile{nav}{\headcommand {\slideentry {4}{0}{15}{26/26}{}{0}}}
\@writefile{nav}{\headcommand {\beamer@framepages {26}{26}}}
\newlabel{in command}{{27}{27}{Results \& Discussion}{Doc-Start}{}}
\@writefile{snm}{\beamer@slide {in command}{27}}
\@writefile{nav}{\headcommand {\slideentry {4}{0}{16}{27/27}{}{0}}}
\@writefile{nav}{\headcommand {\beamer@framepages {27}{27}}}
\newlabel{l command}{{28}{28}{Results \& Discussion}{Doc-Start}{}}
\@writefile{snm}{\beamer@slide {l command}{28}}
\@writefile{nav}{\headcommand {\slideentry {4}{0}{17}{28/28}{}{0}}}
\@writefile{nav}{\headcommand {\beamer@framepages {28}{28}}}
\newlabel{bb command}{{29}{29}{Results \& Discussion}{Doc-Start}{}}
\@writefile{snm}{\beamer@slide {bb command}{29}}
\@writefile{nav}{\headcommand {\slideentry {4}{0}{18}{29/29}{}{0}}}
\@writefile{nav}{\headcommand {\beamer@framepages {29}{29}}}
\newlabel{Heart_Wireframe_right}{{30}{30}{Results \& Discussion}{Doc-Start}{}}
\@writefile{snm}{\beamer@slide {Heart_Wireframe_right}{30}}
\@writefile{nav}{\headcommand {\slideentry {4}{0}{19}{30/30}{}{0}}}
\@writefile{nav}{\headcommand {\beamer@framepages {30}{30}}}
\newlabel{Heart_Wireframe_front}{{31}{31}{Results \& Discussion}{Doc-Start}{}}
\@writefile{snm}{\beamer@slide {Heart_Wireframe_front}{31}}
\@writefile{nav}{\headcommand {\slideentry {4}{0}{20}{31/31}{}{0}}}
\@writefile{nav}{\headcommand {\beamer@framepages {31}{31}}}
\newlabel{Heart_Wireframe_Top}{{32}{32}{Results \& Discussion}{Doc-Start}{}}
\@writefile{snm}{\beamer@slide {Heart_Wireframe_Top}{32}}
\@writefile{nav}{\headcommand {\slideentry {4}{0}{21}{32/32}{}{0}}}
\@writefile{nav}{\headcommand {\beamer@framepages {32}{32}}}
\newlabel{Heart_from_besides}{{33}{33}{Results \& Discussion}{Doc-Start}{}}
\@writefile{snm}{\beamer@slide {Heart_from_besides}{33}}
\@writefile{nav}{\headcommand {\slideentry {4}{0}{22}{33/33}{}{0}}}
\@writefile{nav}{\headcommand {\beamer@framepages {33}{33}}}
\newlabel{Heart_from_above}{{34}{34}{Results \& Discussion}{Doc-Start}{}}
\@writefile{snm}{\beamer@slide {Heart_from_above}{34}}
\@writefile{nav}{\headcommand {\slideentry {4}{0}{23}{34/34}{}{0}}}
\@writefile{nav}{\headcommand {\beamer@framepages {34}{34}}}
\newlabel{Heart_from_below}{{35}{35}{Results \& Discussion}{Doc-Start}{}}
\@writefile{snm}{\beamer@slide {Heart_from_below}{35}}
\@writefile{nav}{\headcommand {\slideentry {4}{0}{24}{35/35}{}{0}}}
\@writefile{nav}{\headcommand {\beamer@framepages {35}{35}}}
\newlabel{Thanks}{{36}{36}{Results \& Discussion}{Doc-Start}{}}
\@writefile{snm}{\beamer@slide {Thanks}{36}}
\@writefile{nav}{\headcommand {\slideentry {4}{0}{25}{36/36}{}{0}}}
\@writefile{nav}{\headcommand {\beamer@framepages {36}{36}}}
\@writefile{nav}{\headcommand {\beamer@partpages {1}{36}}}
\@writefile{nav}{\headcommand {\beamer@subsectionpages {26}{36}}}
\@writefile{nav}{\headcommand {\beamer@sectionpages {26}{36}}}
\@writefile{nav}{\headcommand {\beamer@documentpages {36}}}
\@writefile{nav}{\headcommand {\def \inserttotalframenumber {36}}}
